%YAML 1.1
%TAG !u! tag:unity3d.com,2011:
--- !u!114 &11400000
MonoBehaviour:
  m_ObjectHideFlags: 0
  m_CorrespondingSourceObject: {fileID: 0}
  m_PrefabInternal: {fileID: 0}
  m_GameObject: {fileID: 0}
  m_Enabled: 1
  m_EditorHideFlags: 0
  m_Script: {fileID: 11500000, guid: 6e6ea9590a265c9448cb58ebf8843a30, type: 3}
  m_Name: Keys
  m_EditorClassIdentifier: 
  keys:
  - Prefab: {fileID: 100000, guid: 9b0b8afdc5c788d4799a2cc110f39c6e, type: 2}
    Colour: {r: 1, g: 0, b: 0, a: 1}
    KeysPerLock:
      Min: 1
      Max: 2
    id: 0
    name: Red
  - Prefab: {fileID: 100000, guid: 9b0b8afdc5c788d4799a2cc110f39c6e, type: 2}
    Colour: {r: 0, g: 1, b: 0, a: 1}
    KeysPerLock:
      Min: 1
      Max: 1
    id: 1
    name: Green
  - Prefab: {fileID: 100000, guid: 9b0b8afdc5c788d4799a2cc110f39c6e, type: 2}
    Colour: {r: 0, g: 0, b: 1, a: 1}
    KeysPerLock:
      Min: 1
      Max: 1
    id: 2
    name: Blue
